<Qucs Schematic 0.0.19>
<Properties>
  <View=0,60,800,800,1,0,0>
  <Grid=10,10,1>
  <DataSet=crossover.dat>
  <DataDisplay=crossover.dpl>
  <OpenDisplay=1>
  <Script=crossover.m>
  <RunScript=0>
  <showFrame=0>
  <FrameText0=Title>
  <FrameText1=Drawn By:>
  <FrameText2=Date:>
  <FrameText3=Revision:>
</Properties>
<Symbol>
</Symbol>
<Components>
  <GND * 1 150 350 0 0 0 0>
  <GND * 1 340 380 0 0 0 0>
  <R R2 1 340 350 15 -26 0 1 "999" 1 "26.85" 0 "0.0" 0 "0.0" 0 "26.85" 0 "US" 0>
  <VProbe Vt 1 300 350 -31 -45 0 1>
  <VProbe Vi 1 90 220 -31 -45 0 1>
  <GND * 1 110 210 0 0 0 1>
  <GND * 1 520 410 0 0 0 0>
  <VProbe Vw 1 480 380 -31 -45 0 1>
  <L L1 1 520 320 -107 -26 0 3 "53.78 mH" 1 "0" 0>
  <C C1 1 340 270 17 -26 0 1 "14.53 nF" 1 "" 0 "neutral" 0>
  <R R5 1 300 270 15 -26 0 1 "1M" 1 "26.85" 0 "0.0" 0 "0.0" 0 "26.85" 0 "US" 0>
  <R R1 1 150 260 15 -26 0 1 "50" 1 "26.85" 0 "0.0" 0 "0.0" 0 "26.85" 0 "european" 0>
  <Vac V1 1 150 320 18 -26 0 1 "1" 1 "5700" 0 "0" 0 "0" 0>
  <.AC AC1 1 140 460 0 38 0 0 "log" 1 "1" 1 "200k" 1 "107" 1 "yes" 0>
  <.TR TR1 1 300 460 0 61 0 0 "lin" 1 "0" 1 "1 ms" 1 "10000" 0 "Trapezoidal" 0 "2" 0 "1 ns" 0 "1e-16" 0 "150" 0 "0.001" 0 "1 pA" 0 "1 uV" 0 "26.85" 0 "1e-3" 0 "1e-6" 0 "1" 0 "CroutLU" 0 "no" 0 "yes" 0 "0" 0>
  <R R3 1 520 380 15 -26 0 1 "999" 1 "26.85" 0 "0.0" 0 "0.0" 0 "26.85" 0 "US" 0>
  <R R4 1 520 260 15 -26 0 1 "4.6" 1 "26.85" 0 "0.0" 0 "0.0" 0 "26.85" 0 "US" 0>
</Components>
<Wires>
  <150 220 150 230 "" 0 0 0 "">
  <150 220 340 220 "" 0 0 0 "">
  <320 320 340 320 "" 0 0 0 "">
  <320 320 320 340 "" 0 0 0 "">
  <320 380 340 380 "" 0 0 0 "">
  <320 360 320 380 "" 0 0 0 "">
  <110 230 150 230 "" 0 0 0 "">
  <500 350 500 370 "" 0 0 0 "">
  <500 350 520 350 "" 0 0 0 "">
  <500 390 500 410 "" 0 0 0 "">
  <500 410 520 410 "" 0 0 0 "">
  <340 220 340 240 "" 0 0 0 "">
  <340 300 340 320 "" 0 0 0 "">
  <300 240 340 240 "" 0 0 0 "">
  <300 300 340 300 "" 0 0 0 "">
  <340 220 520 220 "" 0 0 0 "">
  <520 220 520 230 "" 0 0 0 "">
</Wires>
<Diagrams>
</Diagrams>
<Paintings>
</Paintings>
