0.931 0.994 -0.018
1.118 0.994 -0.017
1.304 0.994 -0.022
1.490 0.994 -0.026
1.676 0.994 -0.029
1.863 0.994 -0.036
2.049 0.994 -0.035
2.235 0.994 -0.041
2.421 0.994 -0.044
2.794 0.994 -0.049
3.166 0.994 -0.056
3.539 0.994 -0.065
3.912 0.994 -0.073
4.470 0.994 -0.083
5.029 0.994 -0.090
5.588 0.994 -0.102
6.333 0.994 -0.115
7.078 0.994 -0.130
8.009 0.994 -0.147
8.941 0.994 -0.166
10.058 0.994 -0.180
11.176 0.994 -0.202
12.666 0.994 -0.231
14.156 0.993 -0.261
15.832 0.993 -0.289
17.695 0.993 -0.320
19.930 0.993 -0.362
22.352 0.993 -0.408
25.146 0.993 -0.459
28.126 0.993 -0.515
31.665 0.993 -0.579
35.390 0.993 -0.646
39.861 0.993 -0.730
44.703 0.993 -0.818
50.105 0.992 -0.921
56.252 0.992 -1.034
63.144 0.992 -1.163
70.781 0.992 -1.298
79.349 0.991 -1.459
89.034 0.991 -1.640
100.024 0.991 -1.842
112.131 0.990 -2.073
125.915 0.990 -2.331
141.189 0.989 -2.616
158.511 0.988 -2.938
177.883 0.988 -3.296
199.489 0.987 -3.689
223.890 0.985 -4.138
251.271 0.984 -4.639
281.818 0.982 -5.193
316.277 0.980 -5.817
354.834 0.978 -6.514
398.047 0.975 -7.290
446.662 0.972 -8.157
501.238 0.968 -9.121
562.333 0.964 -10.186
630.878 0.958 -11.374
707.991 0.951 -12.685
794.418 0.944 -14.131
891.276 0.934 -15.709
1000.054 0.923 -17.445
1122.057 0.910 -19.339
1258.962 0.895 -21.387
1412.630 0.878 -23.587
1584.925 0.858 -25.939
1778.267 0.835 -28.432
1995.265 0.810 -31.057
2238.713 0.782 -33.792
2511.963 0.751 -36.614
2818.368 0.718 -39.497
3162.213 0.683 -42.408
3548.153 0.647 -45.322
3981.031 0.609 -48.207
4466.809 0.570 -51.034
5011.819 0.532 -53.781
5623.326 0.494 -56.414
6309.524 0.456 -58.944
7079.542 0.420 -61.326
7943.250 0.386 -63.561
8912.571 0.353 -65.646
9999.983 0.322 -67.578
11220.202 0.293 -69.369
12589.246 0.266 -71.002
14125.369 0.241 -72.499
15848.875 0.218 -73.890
17782.860 0.197 -75.123
19952.655 0.178 -76.238
22387.132 0.160 -77.233
25118.887 0.144 -78.133
28183.870 0.130 -78.928
31622.685 0.116 -79.625
35481.341 0.104 -80.231
39810.687 0.093 -80.744
44668.280 0.083 -81.168
50118.752 0.074 -81.489
56234.188 0.066 -81.704
63095.801 0.058 -81.794
70794.486 0.051 -81.735
79432.875 0.050 -77.507
89125.149 0.044 -76.897
100000.016 0.039 -75.659
112201.832 0.034 -74.834
125892.460 0.030 -73.298
141253.695 0.026 -71.355
158489.309 0.023 -68.952
177827.850 0.019 -65.989
199526.176 0.016 -62.155
