  10.058   
 11.176   
 12.666   
 14.156   
 15.832   
 17.695   
 19.930   
 22.352   
 25.146   
 28.126   
 31.665   
 35.390   
 39.861   
 44.703   
 50.105   
 56.252   
 63.144   
 70.781   
 79.349   
 89.034   
100.024   
112.131   
125.915   
141.189   
158.511   
177.883   
199.489   
223.890   
251.271   
281.818   
316.277   
354.834   
398.047   
446.662   
501.238   
562.333   
630.878   
707.991   
794.418   
891.276   
1000.054  
1122.057  
1258.962  
1412.630  
1584.925  
1778.267  
1995.265  
2238.713  
2511.963  
2818.368  
3162.213  
3548.153  
3981.031  
4466.809  
5011.819  
5623.326  
6309.524  
7079.542  
7943.250  
8912.571  
9999.983  
11220.202 
12589.246 
14125.369 
15848.875 
17782.860 
19952.655 
22387.132 
25118.887 
28183.870 
31622.685 
35481.341 
39810.687 
44668.280 
50118.752 
56234.188 
63095.801 
70794.486 

