 -0.180
 -0.202
 -0.231
 -0.261
 -0.289
 -0.320
 -0.362
 -0.408
 -0.459
 -0.515
 -0.579
 -0.646
 -0.730
 -0.818
 -0.921
 -1.034
 -1.163
 -1.298
 -1.459
 -1.640
 -1.842
 -2.073
 -2.331
 -2.616
 -2.938
 -3.296
 -3.689
 -4.138
 -4.639
 -5.193
 -5.817
 -6.514
 -7.290
 -8.157
 -9.121
-10.186
-11.374
-12.685
-14.131
-15.709
 -17.445
 -19.339
 -21.387
 -23.587
 -25.939
 -28.432
 -31.057
 -33.792
 -36.614
 -39.497
 -42.408
 -45.322
 -48.207
 -51.034
 -53.781
 -56.414
 -58.944
 -61.326
 -63.561
 -65.646
 -67.578
  -69.369
  -71.002
  -72.499
  -73.890
  -75.123
  -76.238
  -77.233
  -78.133
  -78.928
  -79.625
  -80.231
  -80.744
  -81.168
  -81.489
  -81.704
  -81.794
  -81.735

